{
    "family": "learnproduction_td",
    "taskRoleArn": "arn:aws:iam::004941777231:role/ec2ContainerServiceTaskRole",
    "networkMode": "bridge",
    "volumes": [
         {
          "host": {
            "sourcePath": "/home/ec2-user/src"
          },
          "name": "scode"
        }
      ],
    "containerDefinitions": [
        {
            "name": "learnproduction_container",
            "image": "004941777231.dkr.ecr.ap-southeast-2.amazonaws.com/learn/production:%BUILD_NUMBER%",
            "cpu": 1024,
            "memory": 950,
            "portMappings": [
                {
                    "containerPort": 80,
                    "hostPort": 80,
                    "protocol": "tcp"
                }
            ],
            "mountPoints": [
                {
                  "containerPath": "/var/www/html",
                  "sourceVolume": "scode"
                }
      ],
            "essential": true
        }
    ] 
}

